…
```
##   Winrate  BanRate
## 1 50.0943 1.568449
```

```r
## En conjunto con datos a los que se les aplicó la función group_by
summarise(grouped.data, Minion_mean=mean(Minions))
```

```
## # A tibble: 32 x 2
##    Position.s.           Minion_mean
##    <chr>                       <dbl>
##  1 " Bottom"                    186.
##  2 " Bottom Top Middle"         194.
##  3 " Fighter Tank"              157.
##  4 " Jungle"                    151.
##  5 " Jungle Middle"             139.
##  6 " Jungle Support"            125.
##  7 " Jungle Top"                160.
##  8 " Jungle Top Middle"         169.
##  9 " Jungle Top Support"        131 
## 10 " Mana"                       95 
## # ... with 22 more rows
```
…
